mock_test_capture.vcd
$date 2026-05-15 07:43:48 $end
$version Logic Analyzer Pro - Custom VCD Exporter $end
$timescale 2000 ns $end
$scope module LogicAnalyzer $end
$var wire 1 ! CH0 $end
$var wire 1 " CH1 $end
$var wire 1 # CH2 $end
$var wire 1 $ CH3 $end
$var wire 1 % CH4 $end
$var wire 1 & CH5 $end
$var wire 1 ' CH6 $end
$var wire 1 ( CH7 $end
$upscope $end
$enddefinitions $end
#0
0!
1"
1#
1$
1%
0&
0'
1(
#250
1!
#500
0!
#750
1!
#1000
0!
#1250
1!
#1500
0!
#1750
1!
#2000
0!
0"
#2052
1"
#2250
1!
#2260
0"
#2364
1"
#2416
0"
#2468
1"
#2500
0!
#2624
0"
#2676
1"
#2750
1!
#2780
0"
#2832
1"
#2884
0"
#2988
1"
#3000
0!
#3040
0"
#3092
1"
#3250
1!
#3500
0!
#3750
1!
#4000
0!
#4250
1!
#4500
0!
#4750
1!
#5000
0!
#5250
1!
#5500
0!
#5750
1!
#6000
0!
#6250
1!
#6500
0!
#6750
1!
#7000
0!
#7250
1!
#7500
0!
#7750
1!
#8000
0!
#8250
1!
#8500
0!
#8750
1!
#9000
0!
#9250
1!
#9500
0!
#9750
1!
#10000
0!
#10250
1!
#10500
0!
#10750
1!
#11000
0!
#11250
1!
#11500
0!
#11750
1!
#12000
0!
#12250
1!
#12500
0!
#12750
1!
#13000
0!
#13250
1!
#13500
0!
#13750
1!
#14000
0!
#14250
1!
#14500
0!
#14750
1!
#15000
0!
0#
#15050
0$
#15125
1$
#15175
0$
#15200
1#
#15225
1$
#15250
1!
#15275
0$
#15325
1$
#15375
0$
#15425
1$
#15475
0$
#15500
0!
#15525
1$
#15575
0$
#15600
0#
#15625
1$
#15675
0$
#15725
1$
#15750
1!
#15775
0$
#15825
1$
#15875
0$
#15925
1$
#15975
0$
#16000
0!
1$
#16050
1#
#16250
1!
#16500
0!
#16750
1!
#17000
0!
#17250
1!
#17500
0!
#17750
1!
#18000
0!
#18250
1!
#18500
0!
#18750
1!
#19000
0!
#19250
1!
#19500
0!
#19750
1!
#20000
0!
#20250
1!
#20500
0!
#20750
1!
#21000
0!
#21250
1!
#21500
0!
#21750
1!
#22000
0!
#22250
1!
#22500
0!
#22750
1!
#23000
0!
#23250
1!
#23500
0!
#23750
1!
#24000
0!
#24250
1!
#24500
0!
#24750
1!
#25000
0!
#25250
1!
#25500
0!
#25750
1!
#26000
0!
#26250
1!
#26500
0!
#26750
1!
#27000
0!
#27250
1!
#27500
0!
#27750
1!
#28000
0!
#28250
1!
#28500
0!
#28750
1!
#29000
0!
#29250
1!
#29500
0!
#29750
1!
#30000
0!
0%
#30075
1&
#30100
0&
1'
#30125
1&
#30150
0&
0'
#30175
1&
#30200
0&
1'
#30225
1&
#30250
1!
0&
0'
#30275
1&
#30300
0&
1'
#30325
1&
#30350
0&
0'
#30375
1&
#30400
0&
1'
#30425
1&
#30450
1%
0&
0'
#30500
0!
#30750
1!
#31000
0!
#31250
1!
#31500
0!
#31750
1!
#32000
0!
#32250
1!
#32500
0!
#32750
1!
#33000
0!
#33250
1!
#33500
0!
#33750
1!
#34000
0!
#34250
1!
#34500
0!
#34750
1!
#35000
0!
#35250
1!
#35500
0!
#35750
1!
#36000
0!
#36250
1!
#36500
0!
#36750
1!
#37000
0!
#37250
1!
#37500
0!
#37750
1!
#38000
0!
#38250
1!
#38500
0!
#38750
1!
#39000
0!
#39250
1!
#39500
0!
#39750
1!
#40000
0!
#40250
1!
#40500
0!
#40750
1!
#41000
0!
#41250
1!
#41500
0!
#41750
1!
#42000
0!
#42250
1!
#42500
0!
#42750
1!
#43000
0!
#43250
1!
#43500
0!
#43750
1!
#44000
0!
#44250
1!
#44500
0!
#44750
1!
#45000
0!
#45250
1!
#45500
0!
#45750
1!
#46000
0!
#46250
1!
#46500
0!
#46750
1!
#47000
0!
#47250
1!
#47500
0!
#47750
1!
#48000
0!
#48250
1!
#48500
0!
#48750
1!
#49000
0!
#49250
1!
#49500
0!
#49750
1!
